NTT_PolyMul_1.sim/sim_1/behav/xsim/ntt_tb.vcd
$date
   Mon May 18 15:26:20 2026
$end

$version
  2025.2
  $dumpfile ("ntt_tb.vcd") 
$end

$timescale
  1ps
$end

$scope module ntt_tb $end
$var reg 1 ! clk $end
$var reg 1 " rst $end
$var reg 32 # data_in [31:0] $end
$var reg 1 $ load_en $end
$var reg 3 % load_addr [2:0] $end
$var reg 32 & modulus [31:0] $end
$var reg 32 ' omega [31:0] $end
$var reg 32 ( n_inv [31:0] $end
$var reg 1 ) start $end
$var reg 1 * inverse $end
$var wire 1 + done $end
$var wire 32 , data_out [31:0] $end
$var reg 3 - out_addr [2:0] $end
$var reg 32 . omega_fwd [31:0] $end
$var reg 32 / omega_inv_r [31:0] $end
$var reg 32 0 n_inv_r [31:0] $end
$var integer 32 1 pass_count [31:0] $end
$var integer 32 2 fail_count [31:0] $end
$var integer 32 3 j [31:0] $end
$var integer 32 4 tout [31:0] $end
$var integer 32 5 fid [31:0] $end
$var reg 128 6 tag [127:0] $end
$var integer 32 7 idx_r [31:0] $end
$var integer 32 8 val_r [31:0] $end
$var integer 32 9 scan_ret [31:0] $end
$var integer 32 : pw_tmp [31:0] $end
$var reg 64 ; pw_prod [63:0] $end
$scope module dut $end
$var wire 1 < clk $end
$var wire 1 = rst $end
$var wire 32 > data_in [31:0] $end
$var wire 1 ? load_en $end
$var wire 3 @ load_addr [2:0] $end
$var wire 32 A modulus [31:0] $end
$var wire 32 B omega [31:0] $end
$var wire 32 C n_inv [31:0] $end
$var wire 1 D start $end
$var wire 1 E inverse $end
$var reg 1 F done $end
$var wire 32 , data_out [31:0] $end
$var wire 3 G out_addr [2:0] $end
$var reg 3 H state [2:0] $end
$var reg 3 I stage [2:0] $end
$var reg 3 J bfly_cnt [2:0] $end
$var reg 3 K tw_idx [2:0] $end
$var reg 3 L scale_idx [2:0] $end
$var reg 1 M inv_reg $end
$var reg 3 N idx_i [2:0] $end
$var reg 3 O idx_j [2:0] $end
$var reg 3 P tw_sel [2:0] $end
$var wire 32 Q a_val [31:0] $end
$var wire 32 R b_val [31:0] $end
$var wire 32 S tw_val [31:0] $end
$var wire 32 T x_gs [31:0] $end
$var wire 32 U y_gs [31:0] $end
$var wire 32 V x_ct [31:0] $end
$var wire 32 W y_ct [31:0] $end
$var wire 32 X x_out [31:0] $end
$var wire 32 Y y_out [31:0] $end
$var wire 32 Z tw_prev [31:0] $end
$var wire 32 [ tw_next [31:0] $end
$var wire 32 \ scaled_val [31:0] $end
$var integer 32 ] ii [31:0] $end
$scope begin idx_calc $end
$var reg 3 ^ half [2:0] $end
$var reg 3 _ group [2:0] $end
$var reg 3 ` k [2:0] $end
$var reg 3 a log_step [2:0] $end
$var reg 4 b step [3:0] $end
$upscope $end
$scope module u_gs $end
$var wire 32 Q a [31:0] $end
$var wire 32 R b [31:0] $end
$var wire 32 S w [31:0] $end
$var wire 32 A q [31:0] $end
$var wire 32 T x [31:0] $end
$var wire 32 U y [31:0] $end
$var wire 33 c sum [32:0] $end
$var wire 32 d diff [31:0] $end
$var wire 64 e yw_full [63:0] $end
$upscope $end
$scope module u_ct $end
$var wire 32 Q a [31:0] $end
$var wire 32 R b [31:0] $end
$var wire 32 S w [31:0] $end
$var wire 32 A q [31:0] $end
$var wire 32 V x [31:0] $end
$var wire 32 W y [31:0] $end
$var wire 64 f bw_full [63:0] $end
$var wire 32 g bw [31:0] $end
$var wire 33 h sum [32:0] $end
$upscope $end
$scope module u_tw $end
$var wire 32 Z a [31:0] $end
$var wire 32 B b [31:0] $end
$var wire 32 A q [31:0] $end
$var wire 32 [ result [31:0] $end
$var wire 64 i full [63:0] $end
$upscope $end
$scope module u_sc $end
$var wire 32 j a [31:0] $end
$var wire 32 C b [31:0] $end
$var wire 32 A q [31:0] $end
$var wire 32 \ result [31:0] $end
$var wire 64 k full [63:0] $end
$upscope $end
$upscope $end
$scope task do_reset $end
$upscope $end
$scope task load_A $end
$upscope $end
$scope task load_B $end
$upscope $end
$scope task load_C $end
$upscope $end
$scope task run_transform $end
$var reg 1 l inv_flag $end
$upscope $end
$scope task capture_A_ntt $end
$upscope $end
$scope task capture_B_ntt $end
$upscope $end
$scope task capture_result $end
$upscope $end
$scope task check_A_ntt $end
$var integer 32 m lf [31:0] $end
$upscope $end
$scope task check_B_ntt $end
$var integer 32 n lf [31:0] $end
$upscope $end
$scope task check_result $end
$var integer 32 o lf [31:0] $end
$upscope $end
$scope task read_params $end
$upscope $end
$upscope $end
$enddefinitions $end

#0
$dumpvars
0!
1"
b0 #
0$
b0 %
b1011001 &
b0 '
b0 (
0)
0*
x+
bx ,
b0 -
b100101 .
b1001101 /
b1001110 0
b0 1
b0 2
b1000 3
bx 4
b0 5
bx 6
bx 7
bx 8
bx 9
bx :
bx ;
0<
1=
b0 >
0?
b0 @
b1011001 A
b0 B
b0 C
0D
0E
xF
b0 G
bx H
bx I
bx J
bx K
bx L
xM
bx N
bx O
bx P
bx Q
bx R
bx S
bx T
bx U
bx V
bx W
bx X
bx Y
bx Z
bx [
bx \
bx ]
bx ^
bx _
bx `
bx a
bx b
bx c
bx d
bx e
bx f
bx g
bx h
bx i
bx j
bx k
xl
bx m
bx n
bx o
$end

#5000
1!
0+
b0 ,
1<
0F
b0 H
b0 I
b0 J
b0 K
b0 L
0M
b0 N
b100 O
b0 P
b0 Q
b0 R
b0 T
b0 X
b0 \
b1000 ]
b100 ^
b0 _
b0 `
b10 a
b0 c
b0 d
b0 j
b0 k

#10000
0!
0<

#15000
1!
1<
b1000 ]

#20000
0!
0<

#25000
1!
1<
b1000 ]

#30000
0!
0<

#35000
1!
1<
b1000 ]

#40000
0!
0"
b100101 '
b1001110 (
b0 3
0<
0=
b100101 B
b1001110 C

#45000
1!
1<

#50000
0!
b1 #
1$
b1 3
0<
b1 >
1?

#55000
1!
b1 ,
1<
b1 Q
b1 T
b1 X
b1001110 \
b1 c
b1 d
b1 j
b1001110 k

#60000
0!
b10 #
b1 %
b10 3
0<
b10 >
b1 @

#65000
1!
1<

#70000
0!
b11 #
b10 %
b11 3
0<
b11 >
b10 @

#75000
1!
1<

#80000
0!
b100 #
b11 %
b100 3
0<
b100 >
b11 @

#85000
1!
1<

#90000
0!
b0 #
b100 %
b101 3
0<
b0 >
b100 @

#95000
1!
1<

#100000
0!
b101 %
b110 3
0<
b101 @

#105000
1!
1<

#110000
0!
b110 %
b111 3
0<
b110 @

#115000
1!
1<

#120000
0!
b111 %
b1000 3
0<
b111 @

#125000
1!
1<

#130000
0!
0$
0<
0?
0l

#135000
1!
1<

#140000
0!
1)
0<
1D

#145000
1!
1<
b1 H
b1 K
b1 S
b1 U
b1 V
b1 W
b1 Y
b1 Z
b100101 [
b1 e
b0 f
b0 g
b1 h
b100101 i

#150000
0!
0)
b0 4
0<
0D

#155000
1!
b1 4
1<
b10 K
b100101 Z
b100010 [
b10101011001 i

#160000
0!
0<

#165000
1!
b10 4
1<
b11 K
b100010 Z
b1100 [
b10011101010 i

#170000
0!
0<

#175000
1!
b11 4
1<
b100 K
b1100 Z
b1011000 [
b110111100 i

#180000
0!
0<

#185000
1!
b100 4
1<
b101 K
b1011000 Z
b110100 [
b110010111000 i

#190000
0!
0<

#195000
1!
b101 4
1<
b110 K
b110100 Z
b110111 [
b11110000100 i

#200000
0!
0<

#205000
1!
b110 4
1<
b111 K
b110111 Z
b1001101 [
b11111110011 i

#210000
0!
0<

#215000
1!
b111 4
1<
b10 H

#220000
0!
0<

#225000
1!
b1000 4
1<
b1 J
b1 N
b101 O
b1 P
b10 Q
b0 R
b100101 S
b10 T
b1001010 U
b10 V
b10 W
b10 X
b1001010 Y
b1 `
b10 c
b10 d
b1001010 e
b0 f
b0 g
b10 h

#230000
0!
0<

#235000
1!
b1001 4
1<
b10 J
b10 N
b110 O
b10 P
b11 Q
b0 R
b100010 S
b11 T
b1101 U
b11 V
b11 W
b11 X
b1101 Y
b10 `
b11 c
b11 d
b1100110 e
b0 f
b0 g
b11 h

#240000
0!
0<

#245000
1!
b1010 4
1<
b11 J
b11 N
b111 O
b11 P
b100 Q
b0 R
b1100 S
b100 T
b110000 U
b100 V
b100 W
b100 X
b110000 Y
b11 `
b100 c
b100 d
b110000 e
b0 f
b0 g
b100 h

#250000
0!
0<

#255000
1!
b1011 4
1<
b1 I
b0 J
b0 N
b10 O
b0 P
b1 Q
b11 R
b1 S
b100 T
b1010111 U
b100 V
b1010111 W
b100 X
b1010111 Y
b10 ^
b0 `
b1 a
b100 c
b1010111 d
b1010111 e
b11 f
b11 g
b100 h

#260000
0!
0<

#265000
1!
b100 ,
b1100 4
1<
b1 J
b1 N
b11 O
b10 P
b10 Q
b100 R
b100010 S
b110 T
b10101 U
b110001 V
b101100 W
b110 X
b10101 Y
b101101 \
b1 `
b110 c
b1010111 d
b101110001110 e
b10001000 f
b101111 g
b110001 h
b100 j
b100111000 k

#270000
0!
0<

#275000
1!
b1101 4
1<
b10 J
b100 N
b110 O
b0 P
b1 Q
b1101 R
b1 S
b1110 T
b1001101 U
b1110 V
b1001101 W
b1110 X
b1001101 Y
b1 _
b0 `
b1110 c
b1001101 d
b1001101 e
b1101 f
b1101 g
b1110 h

#280000
0!
0<

#285000
1!
b1110 4
1<
b11 J
b101 N
b111 O
b10 P
b1001010 Q
b110000 R
b100010 S
b100001 T
b1010011 U
b1111 V
b101100 W
b100001 X
b1010011 Y
b1 `
b1111010 c
b11010 d
b1101110100 e
b11001100000 f
b11110 g
b1101000 h

#290000
0!
0<

#295000
1!
b1111 4
1<
b10 I
b0 J
b0 N
b1 O
b0 P
b100 Q
b110 R
b1 S
b1010 T
b1010111 U
b1010 V
b1010111 W
b1010 X
b1010111 Y
b1 ^
b0 _
b0 `
b0 a
b1010 c
b1010111 d
b1010111 e
b110 f
b110 g
b1010 h

#300000
0!
0<

#305000
1!
b1010 ,
b10000 4
1<
b1 J
b10 N
b11 O
b1010111 Q
b10101 R
b10011 T
b1000010 U
b10011 V
b1000010 W
b10011 X
b1000010 Y
b1000100 \
b1 _
b1101100 c
b1000010 d
b1000010 e
b10101 f
b10101 g
b1101100 h
b1010 j
b1100001100 k

#310000
0!
0<

#315000
1!
b10001 4
1<
b10 J
b100 N
b101 O
b1110 Q
b100001 R
b101111 T
b1000110 U
b101111 V
b1000110 W
b101111 X
b1000110 Y
b10 _
b101111 c
b1000110 d
b1000110 e
b100001 f
b100001 g
b101111 h

#320000
0!
0<

#325000
1!
b10010 4
1<
b11 J
b110 N
b111 O
b1001101 Q
b1010011 R
b1000111 T
b1010011 U
b1000111 V
b1010011 W
b1000111 X
b1010011 Y
b11 _
b10100000 c
b1010011 d
b1010011 e
b1010011 f
b1010011 g
b10100000 h

#330000
0!
0<

#335000
1!
b10011 4
1<
b100 H
b0 J
b0 N
b1 O
b1010 Q
b1010111 R
b1000 T
b1100 U
b1000 V
b1100 W
b1000 X
b1100 Y
b0 _
b1100001 c
b1100 d
b1100 e
b1010111 f
b1010111 g
b1100001 h

#340000
0!
0<

#345000
1!
1+
b10100 4
1<
1F
b0 H

#350000
0!
0<

#355000
1!
0+
b10101 4
1<
0F

#360000
0!
0<

#365000
1!
b0 3
1<

#367000
b1010111 ,
b1 -
b1 3
b1 G

#369000
b10011 ,
b10 -
b10 3
b10 G

#370000
0!
0<

#371000
b1000010 ,
b11 -
b11 3
b11 G

#373000
b101111 ,
b100 -
b100 3
b100 G

#375000
1!
b1000110 ,
b101 -
b101 3
1<
b101 G

#377000
b1000111 ,
b110 -
b110 3
b110 G

#379000
b1010011 ,
b111 -
b111 3
b111 G

#380000
0!
0<

#381000
1"
b1000 1
b1000 3
1=
b0 m

#385000
1!
b0 ,
1<
b0 I
b0 K
b100 O
b0 Q
b0 R
b0 T
b0 U
b0 V
b0 W
b0 X
b0 Y
b1 Z
b100101 [
b0 \
b1000 ]
b100 ^
b10 a
b0 c
b0 d
b0 e
b0 f
b0 g
b0 h
b100101 i
b0 j
b0 k

#390000
0!
0<

#395000
1!
1<
b1000 ]

#400000
0!
0<

#405000
1!
1<
b1000 ]

#410000
0!
0<

#415000
1!
1<
b1000 ]

#420000
0!
0"
b0 3
0<
0=

#425000
1!
1<

#430000
0!
b101 #
1$
b0 %
b1 3
0<
b101 >
1?
b0 @

#435000
1!
1<
b101 Q
b101 T
b101 U
b101 V
b101 W
b101 X
b101 Y
b100010 \
b101 c
b101 d
b101 e
b101 h
b101 j
b110000110 k

#440000
0!
b100 #
b1 %
b10 3
0<
b100 >
b1 @

#445000
1!
1<

#450000
0!
b11 #
b10 %
b11 3
0<
b11 >
b10 @

#455000
1!
1<

#460000
0!
b10 #
b11 %
b100 3
0<
b10 >
b11 @

#465000
1!
1<

#470000
0!
b0 #
b100 %
b101 3
0<
b0 >
b100 @

#475000
1!
1<

#480000
0!
b101 %
b110 3
0<
b101 @

#485000
1!
1<

#490000
0!
b110 %
b111 3
0<
b110 @

#495000
1!
1<

#500000
0!
b111 %
b1000 3
0<
b111 @

#505000
1!
1<

#510000
0!
0$
0<
0?

#515000
1!
1<

#520000
0!
1)
0<
1D

#525000
1!
1<
b1 H
b1 K

#530000
0!
0)
b0 4
0<
0D

#535000
1!
b1 4
1<
b10 K
b100101 Z
b100010 [
b10101011001 i

#540000
0!
0<

#545000
1!
b10 4
1<
b11 K
b100010 Z
b1100 [
b10011101010 i

#550000
0!
0<

#555000
1!
b11 4
1<
b100 K
b1100 Z
b1011000 [
b110111100 i

#560000
0!
0<

#565000
1!
b100 4
1<
b101 K
b1011000 Z
b110100 [
b110010111000 i

#570000
0!
0<

#575000
1!
b101 4
1<
b110 K
b110100 Z
b110111 [
b11110000100 i

#580000
0!
0<

#585000
1!
b110 4
1<
b111 K
b110111 Z
b1001101 [
b11111110011 i

#590000
0!
0<

#595000
1!
b111 4
1<
b10 H

#600000
0!
0<

#605000
1!
b1000 4
1<
b1 J
b1 N
b101 O
b1 P
b100 Q
b0 R
b100101 S
b100 T
b111011 U
b100 V
b100 W
b100 X
b111011 Y
b1 `
b100 c
b100 d
b10010100 e
b0 f
b0 g
b100 h

#610000
0!
0<

#615000
1!
b1001 4
1<
b10 J
b10 N
b110 O
b10 P
b11 Q
b0 R
b100010 S
b11 T
b1101 U
b11 V
b11 W
b11 X
b1101 Y
b10 `
b11 c
b11 d
b1100110 e
b0 f
b0 g
b11 h

#620000
0!
0<

#625000
1!
b1010 4
1<
b11 J
b11 N
b111 O
b11 P
b10 Q
b0 R
b1100 S
b10 T
b11000 U
b10 V
b10 W
b10 X
b11000 Y
b11 `
b10 c
b10 d
b11000 e
b0 f
b0 g
b10 h

#630000
0!
0<

#635000
1!
b11000 ,
b1011 4
1<
b1 I
b0 J
b0 N
b10 O
b0 P
b101 Q
b11 R
b1 S
b1000 T
b10 U
b1000 V
b10 W
b1000 X
b10 Y
b10 ^
b0 `
b1 a
b1000 c
b10 d
b10 e
b11 f
b11 g
b1000 h

#640000
0!
0<

#645000
1!
b1100 4
1<
b1 J
b1 N
b11 O
b10 P
b100 Q
b10 R
b100010 S
b110 T
b1000100 U
b1001000 V
b11001 W
b110 X
b1000100 Y
b1 \
b1 `
b110 c
b10 d
b1000100 e
b1000100 f
b1000100 g
b1001000 h
b1000 j
b1001110000 k

#650000
0!
0<

#655000
1!
b1101 4
1<
b10 J
b100 N
b110 O
b0 P
b101 Q
b1101 R
b1 S
b10010 T
b1010001 U
b10010 V
b1010001 W
b10010 X
b1010001 Y
b1 _
b0 `
b10010 c
b1010001 d
b1010001 e
b1101 f
b1101 g
b10010 h

#660000
0!
0<

#665000
1!
b1110 4
1<
b11 J
b101 N
b111 O
b10 P
b111011 Q
b11000 R
b100010 S
b1010011 T
b100001 U
b1001010 V
b101100 W
b1010011 X
b100001 Y
b1 `
b1010011 c
b100011 d
b10010100110 e
b1100110000 f
b1111 g
b1001010 h

#670000
0!
0<

#675000
1!
b100001 ,
b1111 4
1<
b10 I
b0 J
b0 N
b1 O
b0 P
b1000 Q
b110 R
b1 S
b1110 T
b10 U
b1110 V
b10 W
b1110 X
b10 Y
b1 ^
b0 _
b0 `
b0 a
b1110 c
b10 d
b10 e
b110 f
b110 g
b1110 h

#680000
0!
0<

#685000
1!
b10000 4
1<
b1 J
b10 N
b11 O
b10 Q
b1000100 R
b1000110 T
b10111 U
b1000110 V
b10111 W
b1000110 X
b10111 Y
b11000 \
b1 _
b1000110 c
b10111 d
b10111 e
b1000100 f
b1000100 g
b1000110 h
b1110 j
b10001000100 k

#690000
0!
0<

#695000
1!
b10001 4
1<
b10 J
b100 N
b101 O
b10010 Q
b1010011 R
b1100 T
b11000 U
b1100 V
b11000 W
b1100 X
b11000 Y
b10 _
b1100101 c
b11000 d
b11000 e
b1010011 f
b1010011 g
b1100101 h

#700000
0!
0<

#705000
1!
b10010 4
1<
b11 J
b110 N
b111 O
b1010001 Q
b100001 R
b11001 T
b110000 U
b11001 V
b110000 W
b11001 X
b110000 Y
b11 _
b1110010 c
b110000 d
b110000 e
b100001 f
b100001 g
b1110010 h

#710000
0!
0<

#715000
1!
b110000 ,
b10011 4
1<
b100 H
b0 J
b0 N
b1 O
b1110 Q
b10 R
b10000 T
b1100 U
b10000 V
b1100 W
b10000 X
b1100 Y
b0 _
b10000 c
b1100 d
b1100 e
b10 f
b10 g
b10000 h

#720000
0!
0<

#725000
1!
1+
b10100 4
1<
1F
b0 H

#730000
0!
0<

#735000
1!
0+
b10101 4
1<
0F

#740000
0!
0<

#745000
1!
b1110 ,
b0 -
b0 3
1<
b0 G

#747000
b10 ,
b1 -
b1 3
b1 G

#749000
b1000110 ,
b10 -
b10 3
b10 G

#750000
0!
0<

#751000
b10111 ,
b11 -
b11 3
b11 G

#753000
b1100 ,
b100 -
b100 3
b100 G

#755000
1!
b11000 ,
b101 -
b101 3
1<
b101 G

#757000
b11001 ,
b110 -
b110 3
b110 G

#759000
b110000 ,
b111 -
b111 3
b111 G

#760000
0!
0<

#761000
1"
b10000 1
b1000 3
b111110010000 ;
1=
b0 n

#765000
1!
b0 ,
1<
b0 I
b0 K
b100 O
b0 Q
b0 R
b0 T
b0 U
b0 V
b0 W
b0 X
b0 Y
b1 Z
b100101 [
b0 \
b1000 ]
b100 ^
b10 a
b0 c
b0 d
b0 e
b0 f
b0 g
b0 h
b100101 i
b0 j
b0 k

#770000
0!
0<

#775000
1!
1<
b1000 ]

#780000
0!
0<

#785000
1!
1<
b1000 ]

#790000
0!
0<

#795000
1!
1<
b1000 ]

#800000
0!
0"
b1001101 '
b0 3
0<
0=
b1001101 B
b1001101 [
b1001101 i

#805000
1!
1<

#810000
0!
b110011 #
1$
b0 %
b1 3
0<
b110011 >
1?
b0 @

#815000
1!
1<
b110011 Q
b110011 T
b110011 U
b110011 V
b110011 W
b110011 X
b110011 Y
b111110 \
b110011 c
b110011 d
b110011 e
b110011 h
b110011 j
b111110001010 k

#820000
0!
b1010101 #
b1 %
b10 3
0<
b1010101 >
b1 @

#825000
1!
1<

#830000
0!
b1010100 #
b10 %
b11 3
0<
b1010100 >
b10 @

#835000
1!
1<

#840000
0!
b101 #
b11 %
b100 3
0<
b101 >
b11 @

#845000
1!
1<

#850000
0!
b11110 #
b100 %
b101 3
0<
b11110 >
b100 @

#855000
1!
1<
b11110 R
b1010001 T
b10101 U
b1010001 V
b10101 W
b1010001 X
b10101 Y
b1010001 c
b10101 d
b10101 e
b11110 f
b11110 g
b1010001 h

#860000
0!
b1001110 #
b101 %
b110 3
0<
b1001110 >
b101 @

#865000
1!
1<

#870000
0!
b1010100 #
b110 %
b111 3
0<
b1010100 >
b110 @

#875000
1!
1<

#880000
0!
b1000100 #
b111 %
b1000 3
0<
b1000100 >
b111 @

#885000
1!
b1000100 ,
1<

#890000
0!
0$
0<
0?
1l

#895000
1!
1<

#900000
0!
1)
1*
0<
1D
1E

#905000
1!
1<
b1 H
b1 K
1M
b1 O
b1010101 R
b101111 T
b110111 U
b101111 V
b110111 W
b101111 X
b110111 Y
b1 ^
b100 b
b10001000 c
b110111 d
b110111 e
b1010101 f
b1010101 g
b10001000 h

#910000
0!
0)
b0 4
0<
0D

#915000
1!
b1 4
1<
b10 K
b1001101 Z
b110111 [
b1011100101001 i

#920000
0!
0<

#925000
1!
b10 4
1<
b11 K
b110111 Z
b110100 [
b1000010001011 i

#930000
0!
0<

#935000
1!
b11 4
1<
b100 K
b110100 Z
b1011000 [
b111110100100 i

#940000
0!
0<

#945000
1!
b100 4
1<
b101 K
b1011000 Z
b1100 [
b1101001111000 i

#950000
0!
0<

#955000
1!
b101 4
1<
b110 K
b1100 Z
b100010 [
b1110011100 i

#960000
0!
0<

#965000
1!
b110 4
1<
b111 K
b100010 Z
b100101 [
b101000111010 i

#970000
0!
0<

#975000
1!
b111 4
1<
b10 H

#980000
0!
0<

#985000
1!
b1000 4
1<
b1 J
b10 N
b11 O
b1010100 Q
b101 R
b0 T
b1001111 U
b0 V
b1001111 W
b0 X
b1001111 Y
b10001 \
b1 _
b1011001 c
b1001111 d
b1001111 e
b101 f
b101 g
b1011001 h
b101111 j
b111001010010 k

#990000
0!
0<

#995000
1!
b1001 4
1<
b10 J
b100 N
b101 O
b11110 Q
b1001110 R
b10011 T
b101001 U
b10011 V
b101001 W
b10011 X
b101001 Y
b10 _
b1101100 c
b101001 d
b101001 e
b1001110 f
b1001110 g
b1101100 h

#1000000
0!
0<

#1005000
1!
b1010 4
1<
b11 J
b110 N
b111 O
b1010100 Q
b1000100 R
b111111 T
b10000 U
b111111 V
b10000 W
b111111 X
b10000 Y
b11 _
b10011000 c
b10000 d
b10000 e
b1000100 f
b1000100 g
b10011000 h

#1010000
0!
0<

#1015000
1!
b10000 ,
b1011 4
1<
b1 I
b0 J
b0 N
b10 O
b101111 Q
b0 R
b101111 T
b101111 U
b101111 V
b101111 W
b101111 X
b101111 Y
b10 ^
b0 _
b10 b
b101111 c
b101111 d
b101111 e
b0 f
b0 g
b101111 h

#1020000
0!
0<

#1025000
1!
b1100 4
1<
b1 J
b1 N
b11 O
b10 P
b110111 Q
b1001111 R
b110111 S
b101101 T
b1111 U
b100111 V
b1000111 W
b100111 X
b1000111 Y
b1 `
b10000110 c
b1000001 d
b110111110111 e
b1000011111001 f
b1001001 g
b10000000 h

#1030000
0!
0<

#1035000
1!
b1101 4
1<
b10 J
b100 N
b110 O
b0 P
b10011 Q
b111111 R
b1 S
b1010010 T
b101101 U
b1010010 V
b101101 W
b1010010 X
b101101 Y
b1 _
b0 `
b1010010 c
b101101 d
b101101 e
b111111 f
b111111 g
b1010010 h

#1040000
0!
0<

#1045000
1!
b1110 4
1<
b11 J
b101 N
b111 O
b10 P
b101001 Q
b10000 R
b110111 S
b111001 T
b101000 U
b11111 V
b110011 W
b11111 X
b110011 Y
b1 `
b111001 c
b11001 d
b10101011111 e
b1101110000 f
b1001111 g
b1111000 h

#1050000
0!
0<

#1055000
1!
b110011 ,
b1111 4
1<
b10 I
b0 J
b0 N
b100 O
b0 P
b101111 Q
b1010010 R
b1 S
b101000 T
b110110 U
b101000 V
b110110 W
b101000 X
b110110 Y
b100 ^
b0 _
b0 `
b1 b
b10000001 c
b110110 d
b110110 e
b1010010 f
b1010010 g
b10000001 h

#1060000
0!
0<

#1065000
1!
b10000 4
1<
b1 J
b1 N
b101 O
b1 P
b100111 Q
b11111 R
b1001101 S
b1000110 T
b1010010 U
b10111 V
b110111 W
b10111 X
b110111 Y
b101 \
b1 `
b1000110 c
b1000 d
b1001101000 e
b100101010011 f
b1001001 g
b1110000 h
b101000 j
b110000110000 k

#1070000
0!
0<

#1075000
1!
b10001 4
1<
b10 J
b10 N
b110 O
b10 P
b101111 Q
b101101 R
b110111 S
b11 T
b10101 U
b11110 V
b1000000 W
b11110 X
b1000000 Y
b10 `
b1011100 c
b10 d
b1101110 e
b100110101011 f
b1001000 g
b1110111 h

#1080000
0!
0<

#1085000
1!
b10010 4
1<
b11 J
b11 N
b111 O
b11 P
b1000111 Q
b110011 R
b110100 S
b100001 T
b111101 U
b110101 V
b0 W
b110101 X
b0 Y
b11 `
b1111010 c
b10100 d
b10000010000 e
b101001011100 f
b1000111 g
b10001110 h

#1090000
0!
0<

#1095000
1!
b0 ,
b10011 4
1<
b11 H
b0 J
b0 N
b100 O
b0 P
b101000 Q
b110110 R
b1 S
b101 T
b1001011 U
b101 V
b1001011 W
b101 X
b1001011 Y
b0 `
b1011110 c
b1001011 d
b1001011 e
b110110 f
b110110 g
b1011110 h

#1100000
0!
0<

#1105000
1!
b10100 4
1<
b1 L
b101 Q
b111011 T
b101000 U
b111011 V
b101000 W
b111011 X
b101000 Y
b1110 \
b111011 c
b101000 d
b101000 e
b111011 h
b10111 j
b11100000010 k

#1110000
0!
0<

#1115000
1!
b10101 4
1<
b10 L
b11010 \
b11110 j
b100100100100 k

#1120000
0!
0<

#1125000
1!
b10110 4
1<
b11 L
b101000 \
b110101 j
b1000000100110 k

#1130000
0!
0<

#1135000
1!
b10111 4
1<
b100 L
b11101 \
b110110 j
b1000001110100 k

#1140000
0!
0<

#1145000
1!
b11000 4
1<
b101 L
b11101 R
b100010 T
b1000001 U
b100010 V
b1000001 W
b100010 X
b1000001 Y
b10010 \
b100010 c
b1000001 d
b1000001 e
b11101 f
b11101 g
b100010 h
b110111 j
b1000011000010 k

#1150000
0!
0<

#1155000
1!
b11001 4
1<
b110 L
b1000 \
b1000000 j
b1001110000000 k

#1160000
0!
0<

#1165000
1!
b11010 4
1<
b111 L
b0 \
b0 j
b0 k

#1170000
0!
0<

#1175000
1!
b11011 4
1<
b100 H

#1180000
0!
0<

#1185000
1!
1+
b11100 4
1<
1F
b0 H

#1190000
0!
0<

#1195000
1!
0+
b11101 4
1<
0F

#1200000
0!
0<

#1205000
1!
b101 ,
b0 -
b0 3
1<
b0 G

#1207000
b1110 ,
b1 -
b1 3
b1 G

#1209000
b11010 ,
b10 -
b10 3
b10 G

#1210000
0!
0<

#1211000
b101000 ,
b11 -
b11 3
b11 G

#1213000
b11101 ,
b100 -
b100 3
b100 G

#1215000
1!
b10010 ,
b101 -
b101 3
1<
b101 G

#1217000
b1000 ,
b110 -
b110 3
b110 G

#1219000
b0 ,
b111 -
b111 3
b111 G

#1220000
0!
0<

#1221000
b11000 1
b1000 3
b0 o
